{
  "type": "File",
  "start": 0,
  "end": 1781,
  "loc": {
    "start": {
      "line": 1,
      "column": 0
    },
    "end": {
      "line": 40,
      "column": 0
    }
  },
  "program": {
    "type": "Program",
    "start": 0,
    "end": 1781,
    "loc": {
      "start": {
        "line": 1,
        "column": 0
      },
      "end": {
        "line": 40,
        "column": 0
      }
    },
    "sourceType": "module",
    "body": [],
    "directives": [],
    "leadingComments": null,
    "innerComments": [
      {
        "type": "CommentBlock",
        "value": "*\n * DataPoint can be passed into `Connection.write(dataPoint)` method\n * so that you can write points to the database.\n * See: https://docs.influxdata.com/influxdb/latest/introduction/getting_started/#writing-and-exploring-data\n *\n * @public\n * @typedef {Object} DataPoint\n * @property {String} measurement Name of the measurement\n * @property {?(Date|String|Number)} timestamp=undefined timestamp of the measurement point. You can\n *   pass the following type of values:\n *   * Date - a JavaScript date object (it is millisecond-precision)\n *   * Number - millisecond-precision Unix time\n *   * String - nanosecond-precision Unix time as a string.\n *            See https://github.com/sazze/node-nanotime if you need to generate these in Node.js\n * @property {Tag[]|Object} tags Tags to be stored together with the data point. Two formats\n *    are supported:\n *    * either an array of objects with key/value properties (see the example below) or an object\n *      where its property keys serve as tag keys and object property values as tag values\n * @property {Field[]|Object} fields Fields to be stored together with the data point. Two formats\n *    are supported:\n *    * either an array of objects with key/value properties (see the example below) or an object\n *      where its property keys serve as field keys and object property values as field values\n *\n * @example\n * let dataPoint1={\n *   measurement : 'outdoorThermometer',\n *   timestamp: '1465839830100400200',\n *   tags: { location: 'outdoor' },\n *   fields: { temperature: 18.3 }\n * }\n *\n * let dataPoint2={\n *   measurement : 'outdoorThermometer',\n *   timestamp: '1465839831270501600',\n *   tags: [ { key: 'location', value: 'greenhouse' } ]\n *   fields: [ { key: 'temperature', value: 23.7 } ]\n * }\n *\n ",
        "start": 0,
        "end": 1780,
        "loc": {
          "start": {
            "line": 1,
            "column": 0
          },
          "end": {
            "line": 39,
            "column": 3
          }
        }
      }
    ]
  },
  "comments": [
    {
      "type": "CommentBlock",
      "value": "*\n * DataPoint can be passed into `Connection.write(dataPoint)` method\n * so that you can write points to the database.\n * See: https://docs.influxdata.com/influxdb/latest/introduction/getting_started/#writing-and-exploring-data\n *\n * @public\n * @typedef {Object} DataPoint\n * @property {String} measurement Name of the measurement\n * @property {?(Date|String|Number)} timestamp=undefined timestamp of the measurement point. You can\n *   pass the following type of values:\n *   * Date - a JavaScript date object (it is millisecond-precision)\n *   * Number - millisecond-precision Unix time\n *   * String - nanosecond-precision Unix time as a string.\n *            See https://github.com/sazze/node-nanotime if you need to generate these in Node.js\n * @property {Tag[]|Object} tags Tags to be stored together with the data point. Two formats\n *    are supported:\n *    * either an array of objects with key/value properties (see the example below) or an object\n *      where its property keys serve as tag keys and object property values as tag values\n * @property {Field[]|Object} fields Fields to be stored together with the data point. Two formats\n *    are supported:\n *    * either an array of objects with key/value properties (see the example below) or an object\n *      where its property keys serve as field keys and object property values as field values\n *\n * @example\n * let dataPoint1={\n *   measurement : 'outdoorThermometer',\n *   timestamp: '1465839830100400200',\n *   tags: { location: 'outdoor' },\n *   fields: { temperature: 18.3 }\n * }\n *\n * let dataPoint2={\n *   measurement : 'outdoorThermometer',\n *   timestamp: '1465839831270501600',\n *   tags: [ { key: 'location', value: 'greenhouse' } ]\n *   fields: [ { key: 'temperature', value: 23.7 } ]\n * }\n *\n ",
      "start": 0,
      "end": 1780,
      "loc": {
        "start": {
          "line": 1,
          "column": 0
        },
        "end": {
          "line": 39,
          "column": 3
        }
      }
    }
  ],
  "tokens": [
    {
      "type": "CommentBlock",
      "value": "*\n * DataPoint can be passed into `Connection.write(dataPoint)` method\n * so that you can write points to the database.\n * See: https://docs.influxdata.com/influxdb/latest/introduction/getting_started/#writing-and-exploring-data\n *\n * @public\n * @typedef {Object} DataPoint\n * @property {String} measurement Name of the measurement\n * @property {?(Date|String|Number)} timestamp=undefined timestamp of the measurement point. You can\n *   pass the following type of values:\n *   * Date - a JavaScript date object (it is millisecond-precision)\n *   * Number - millisecond-precision Unix time\n *   * String - nanosecond-precision Unix time as a string.\n *            See https://github.com/sazze/node-nanotime if you need to generate these in Node.js\n * @property {Tag[]|Object} tags Tags to be stored together with the data point. Two formats\n *    are supported:\n *    * either an array of objects with key/value properties (see the example below) or an object\n *      where its property keys serve as tag keys and object property values as tag values\n * @property {Field[]|Object} fields Fields to be stored together with the data point. Two formats\n *    are supported:\n *    * either an array of objects with key/value properties (see the example below) or an object\n *      where its property keys serve as field keys and object property values as field values\n *\n * @example\n * let dataPoint1={\n *   measurement : 'outdoorThermometer',\n *   timestamp: '1465839830100400200',\n *   tags: { location: 'outdoor' },\n *   fields: { temperature: 18.3 }\n * }\n *\n * let dataPoint2={\n *   measurement : 'outdoorThermometer',\n *   timestamp: '1465839831270501600',\n *   tags: [ { key: 'location', value: 'greenhouse' } ]\n *   fields: [ { key: 'temperature', value: 23.7 } ]\n * }\n *\n ",
      "start": 0,
      "end": 1780,
      "loc": {
        "start": {
          "line": 1,
          "column": 0
        },
        "end": {
          "line": 39,
          "column": 3
        }
      }
    },
    {
      "type": {
        "label": "eof",
        "beforeExpr": false,
        "startsExpr": false,
        "rightAssociative": false,
        "isLoop": false,
        "isAssign": false,
        "prefix": false,
        "postfix": false,
        "binop": null,
        "updateContext": null
      },
      "start": 1781,
      "end": 1781,
      "loc": {
        "start": {
          "line": 40,
          "column": 0
        },
        "end": {
          "line": 40,
          "column": 0
        }
      }
    }
  ]
}